hubEnsembles: Ensembling Methods in R
…
Example data: a forecast hub

We will use an example hub to demonstrate the functionality of the hubEnsembles package (https://github.com/Infectious-Disease-Modeling-Hubs/example-complex-forecast-hub). The example hub includes both example model output data and target data (sometimes known as “truth” data). The model output data includes quantile, mean and median forecasts of future incident influenza hospitalizations, and pmf forecasts of hospitalization intensity, including “low”, “moderate”, “high”, or “very high” intensities. Hospitalization intensity categories are determined by thresholds for weekly hospital admissions per 100,000 population. These example data are included in the hubEnsembles package.

Each forecast is made for five task ID variables, including the location for which the forecast was made (location), the date on which the forecast was made (reference_date), the number of steps ahead (horizon), the date of the forecast prediction (a combination of the date the forecast was made and the forecast horizon, target_end_date), and the forecast target (target, omitted in the print-out below since all values are identical in this case). Below is an example from a single model, the Flusight-baseline model, for the 1-week ahead forecast of US incident hospitalizations made on December 17, 2022. We print only the median and the 50%, 80%, and 98% prediction intervals, although other intervals and output types are included in the example model output data.

hubEnsembles::example_model_output |>
  dplyr::filter(output_type %in% c("quantile", "median"),
                output_type_id %in% c(0.01, 0.1, 0.25, 0.75, 0.9, 0.99, NA),
                reference_date == "2022-12-17",
                location == "US",
                horizon == 1) |> 
  dplyr::select(-target)

# A tibble: 21 × 8
   location reference_date horizon target_end_date output_type output_type_id
   <chr>    <date>           <int> <date>          <chr>       <chr>         
 1 US       2022-12-17           1 2022-12-24      quantile    0.01          
 2 US       2022-12-17           1 2022-12-24      quantile    0.1           
 3 US       2022-12-17           1 2022-12-24      quantile    0.25          
 4 US       2022-12-17           1 2022-12-24      quantile    0.75          
 5 US       2022-12-17           1 2022-12-24      quantile    0.9           
 6 US       2022-12-17           1 2022-12-24      quantile    0.99          
 7 US       2022-12-17           1 2022-12-24      median      <NA>          
 8 US       2022-12-17           1 2022-12-24      quantile    0.01          
 9 US       2022-12-17           1 2022-12-24      quantile    0.1           
10 US       2022-12-17           1 2022-12-24      quantile    0.25          
# ℹ 11 more rows
# ℹ 2 more variables: value <dbl>, model_id <chr>
…
